<?xml version="1.0" encoding="UTF-8"?>
<testng-results skipped="0" failed="0" ignored="0" total="3" passed="3">
  <reporter-output>
  </reporter-output>
  <suite name="SCIS Tests" duration-ms="174688" started-at="2018-03-13T23:26:48Z" finished-at="2018-03-13T23:29:43Z">
    <groups>
    </groups>
    <test name="SCIS tests" duration-ms="174688" started-at="2018-03-13T23:26:48Z" finished-at="2018-03-13T23:29:43Z">
      <class name="scisTest.SCISBarcodeScannersTest">
        <test-method status="PASS" signature="verifyProducts(java.lang.String, java.lang.String, java.lang.String)[pri:0, instance:scisTest.SCISBarcodeScannersTest@17c68925]" name="verifyProducts" duration-ms="53686" started-at="2018-03-14T10:28:03Z" finished-at="2018-03-14T10:28:57Z">
          <params>
            <param index="0">
              <value>
                <![CDATA[https://www.scisdata.com/]]>
              </value>
            </param>
            <param index="1">
              <value>
                <![CDATA[25234]]>
              </value>
            </param>
            <param index="2">
              <value>
                <![CDATA[abc123]]>
              </value>
            </param>
          </params>
          <reporter-output>
          </reporter-output>
        </test-method> <!-- verifyProducts -->
      </class> <!-- scisTest.SCISBarcodeScannersTest -->
      <class name="scisTest.SICSDownloadPageTest">
        <test-method status="PASS" signature="verifyDownloadPage(java.lang.String, java.lang.String, java.lang.String, java.lang.String)[pri:0, instance:scisTest.SICSDownloadPageTest@7e0ea639]" name="verifyDownloadPage" duration-ms="46094" started-at="2018-03-14T10:28:57Z" finished-at="2018-03-14T10:29:43Z">
          <params>
            <param index="0">
              <value>
                <![CDATA[https://www.scisdata.com/]]>
              </value>
            </param>
            <param index="1">
              <value>
                <![CDATA[25234]]>
              </value>
            </param>
            <param index="2">
              <value>
                <![CDATA[abc123]]>
              </value>
            </param>
            <param index="3">
              <value>
                <![CDATA[1736952]]>
              </value>
            </param>
          </params>
          <reporter-output>
          </reporter-output>
        </test-method> <!-- verifyDownloadPage -->
      </class> <!-- scisTest.SICSDownloadPageTest -->
      <class name="scisTest.SCISSearchTest">
        <test-method status="PASS" signature="verifySearchPage(java.lang.String, java.lang.String, java.lang.String)[pri:0, instance:scisTest.SCISSearchTest@5b464ce8]" name="verifySearchPage" duration-ms="74882" started-at="2018-03-14T10:26:48Z" finished-at="2018-03-14T10:28:03Z">
          <params>
            <param index="0">
              <value>
                <![CDATA[https://www.scisdata.com/]]>
              </value>
            </param>
            <param index="1">
              <value>
                <![CDATA[25234]]>
              </value>
            </param>
            <param index="2">
              <value>
                <![CDATA[abc123]]>
              </value>
            </param>
          </params>
          <reporter-output>
          </reporter-output>
        </test-method> <!-- verifySearchPage -->
      </class> <!-- scisTest.SCISSearchTest -->
    </test> <!-- SCIS tests -->
  </suite> <!-- SCIS Tests -->
</testng-results>
